Modeling and prediction for movies
…
here form the above regression model it shows that title type can explain 12.02% of variability in average score of movies.

###for relationship between studio and scores the relationship between the studio and the relative score of the movie is tabulated below.

movies %>% filter(!is.na(critics_score) , !is.na(audience_score)) %>% group_by(studio) %>% summarise( avg_cri = mean(critics_score) , avg_aud = mean(audience_score) , mean_avg_score = mean(avg_score)) %>% arrange( desc(mean_avg_score))

## `summarise()` ungrouping output (override with `.groups` argument)

## # A tibble: 212 x 4
##    studio                   avg_cri avg_aud mean_avg_score
##    <fct>                      <dbl>   <dbl>          <dbl>
##  1 HBO Documentary            100        94           97  
##  2 Magnet/Magnolia Pictures    98        90           94  
##  3 Newmarket Films             92        94           93  
##  4 TriStar                     93        93           93  
##  5 Disney                     100        85           92.5
##  6 Icarus Films               100        84           92  
##  7 Good Machine                96        87           91.5
##  8 Winstar                    100        83           91.5
##  9 Independent Pictures        95.3      87           91.2
## 10 7th art                     94        88           91  
## # ... with 202 more rows
…
